[
  {
    "Source": "SP",
    "File Name": "SP_Sales_20210429115524.txt",
    "File Size": "223kb",
    "Location": "Landing",
    "Date Created": "24/04/2021 07:13:24AM"
  },
  {
    "Source": "SD",
    "File Name": "SD_Sales_20210429115524.txt",
    "File Size": "248kb",
    "Location": "Archive",
    "Date Created": "24/04/2021 07:55:34AM"
  },
  {
    "Source": "VA",
    "File Name": "VA_PV_monthly_20210429115524.txt",
    "File Size": "230kb",
    "Location": "DQM",
    "Date Created": "24/04/2021 08:19:39AM"
  },
  {
    "Source": "SHA",
    "File Name": "SHA_Weekly_20210429115524.txt",
    "File Size": "232kb",
    "Location": "Deleted",
    "Date Created": "24/04/2021 09:18:07AM"
  },
  {
    "Source": "INS",
    "File Name": "INS_Daily_20210429115524.txt",
    "File Size": "233kb",
    "Location": "Landing",
    "Date Created": "24/04/2021 09:58:58AM"
  },
  {
    "Source": "EASE",
    "File Name": "Ease_Daily_20210429115524.txt",
    "File Size": "218kb",
    "Location": "Archive",
    "Date Created": "24/04/2021 08:21:10AM"
  },
  {
    "Source": "SP",
    "File Name": "SP_Sales_20210429115998.txt",
    "File Size": "222kb",
    "Location": "DQM",
    "Date Created": "24/04/2021 08:13:00AM"
  },
  {
    "Source": "SD",
    "File Name": "SD_Sales_20210429118874.txt",
    "File Size": "204kb",
    "Location": "Deleted",
    "Date Created": "24/04/2021 07:54:38AM"
  },
  {
    "Source": "VA",
    "File Name": "VA_PV_monthly_20210429115881.txt",
    "File Size": "251kb",
    "Location": "Landing",
    "Date Created": "24/04/2021 09:52:38AM"
  },
  {
    "Source": "SHA",
    "File Name": "SHA_Weekly_202104291155887.txt",
    "File Size": "240kb",
    "Location": "Archive",
    "Date Created": "24/04/2021 07:41:00AM"
  },
  {
    "Source": "INS",
    "File Name": "INS_Daily_202104291158812.txt",
    "File Size": "179kb",
    "Location": "DQM",
    "Date Created": "24/04/2021 09:41:13AM"
  },
  {
    "Source": "EASE",
    "File Name": "Ease_Daily_20210429115880.txt",
    "File Size": "199kb",
    "Location": "Deleted",
    "Date Created": "24/04/2021 09:08:36AM"
  }
]