[
  {
    "Input Names": "SD_SALES_DAILY",
    "File Name": "SD_Sales_20210429115524.txt",
    "Arrived At": "24/04/2021 09:03:25AM",
    "Processed At": "24/04/2021 12:26:55PM",
    "Status": "Completed",
    "": ""
  },
  {
    "Input Names": "SP_SALES_DAILY",
    "File Name": "SP_Sales_20210429115524.txt",
    "Arrived At": "24/04/2021 08:55:58AM",
    "Processed At": "24/04/2021 12:43:32PM",
    "Status": "Completed",
    "": ""
  },
  {
    "Input Names": "SD_INVENTORY_DAILY",
    "File Name": "SD_Inventory_20210429115524.txt",
    "Arrived At": "24/04/2021 08:20:21AM",
    "Processed At": "24/04/2021 10:25:34AM",
    "Status": "Completed",
    "": ""
  },
  {
    "Input Names": "SP_INVENTORY_DAILY",
    "File Name": "SP_Inventory_20210429115524.txt",
    "Arrived At": "24/04/2021 09:45:46AM",
    "Processed At": "24/04/2021 11:07:28AM",
    "Status": "Completed",
    "": ""
  },
  {
    "Input Names": "SHA_CHGLOG_SHA_WEEKLY",
    "File Name": "SHA_Weekly_20210429115524.txt",
    "Arrived At": "24/04/2021 07:17:17AM",
    "Processed At": "24/04/2021 12:42:32PM",
    "Status": "Completed",
    "": ""
  },
  {
    "Input Names": "EASE_STATUS",
    "File Name": "Ease_Daily_20210429115524.txt",
    "Arrived At": "24/04/2021 09:38:46AM",
    "Processed At": "24/04/2021 10:42:25AM",
    "Status": "Completed",
    "": ""
  },
  {
    "Input Names": "VA_SALES_CMOP_MONTHLY",
    "File Name": "VA_CMOP_monthly_20210429115524.txt",
    "Arrived At": "24/04/2021 08:42:09AM",
    "Processed At": "24/04/2021 10:16:21AM",
    "Status": "Completed",
    "": ""
  },
  {
    "Input Names": "VA_SALES_PV_MONTHLY",
    "File Name": "VA_PV_monthly_20210429115524.txt",
    "Arrived At": "24/04/2021 08:38:40AM",
    "Processed At": "24/04/2021 10:56:07AM",
    "Status": "Completed",
    "": ""
  },
  {
    "Input Names": "INS_SALES_DAILY",
    "File Name": "INS_Daily_20210429115524.txt",
    "Arrived At": "24/04/2021 09:02:11AM",
    "Processed At": "24/04/2021 12:55:49PM",
    "Status": "Failed",
    "": ""
  },
  {
    "Input Names": "SD_SALES_DAILY",
    "File Name": "SD_Sales_20210429115524.txt",
    "Arrived At": "24/04/2021 07:15:58AM",
    "Processed At": "24/04/2021 11:51:00AM",
    "Status": "Failed",
    "": ""
  },
  {
    "Input Names": "SP_SALES_DAILY",
    "File Name": "SP_Sales_20210429115524.txt",
    "Arrived At": "24/04/2021 08:30:13AM",
    "Processed At": "24/04/2021 11:07:36AM",
    "Status": "Failed",
    "": ""
  },
  {
    "Input Names": "SD_INVENTORY_DAILY",
    "File Name": "SD_Inventory_20210429115524.txt",
    "Arrived At": "24/04/2021 07:25:18AM",
    "Processed At": "24/04/2021 10:44:12AM",
    "Status": "Failed",
    "": ""
  },
  {
    "Input Names": "SP_INVENTORY_DAILY",
    "File Name": "SP_Inventory_20210429115524.txt",
    "Arrived At": "24/04/2021 09:19:02AM",
    "Processed At": "24/04/2021 11:37:04AM",
    "Status": "Failed",
    "": ""
  },
  {
    "Input Names": "SHA_CHGLOG_SHA_WEEKLY",
    "File Name": "SHA_Weekly_20210429115524.txt",
    "Arrived At": "24/04/2021 08:55:58AM",
    "Processed At": "24/04/2021 10:02:27AM",
    "Status": "Failed",
    "": ""
  },
  {
    "Input Names": "EASE_STATUS",
    "File Name": "Ease_Daily_20210429115524.txt",
    "Arrived At": "24/04/2021 08:59:20AM",
    "Processed At": "24/04/2021 11:10:58AM",
    "Status": "Failed",
    "": ""
  },
  {
    "Input Names": "VA_SALES_CMOP_MONTHLY",
    "File Name": "VA_CMOP_monthly_20210429115524.txt",
    "Arrived At": "24/04/2021 07:13:24AM",
    "Processed At": "24/04/2021 11:57:46AM",
    "Status": "Failed",
    "": ""
  },
  {
    "Input Names": "VA_SALES_PV_MONTHLY",
    "File Name": "VA_PV_monthly_20210429115524.txt",
    "Arrived At": "24/04/2021 07:55:34AM",
    "Processed At": "24/04/2021 12:30:33PM",
    "Status": "Failed",
    "": ""
  },
  {
    "Input Names": "INS_SALES_DAILY",
    "File Name": "INS_Daily_20210429115524.txt",
    "Arrived At": "24/04/2021 08:19:39AM",
    "Processed At": "24/04/2021 10:58:10AM",
    "Status": "Completed",
    "": ""
  },
  {
    "Input Names": "SD_SALES_DAILY",
    "File Name": "SD_Sales_20210429115524.txt",
    "Arrived At": "24/04/2021 09:18:07AM",
    "Processed At": "24/04/2021 11:47:17AM",
    "Status": "Completed",
    "": ""
  },
  {
    "Input Names": "SP_SALES_DAILY",
    "File Name": "SP_Sales_20210429115524.txt",
    "Arrived At": "24/04/2021 09:58:58AM",
    "Processed At": "24/04/2021 11:39:35AM",
    "Status": "Completed",
    "": ""
  },
  {
    "Input Names": "SD_INVENTORY_DAILY",
    "File Name": "SD_Inventory_20210429115524.txt",
    "Arrived At": "24/04/2021 08:21:10AM",
    "Processed At": "24/04/2021 10:57:11AM",
    "Status": "Completed",
    "": ""
  },
  {
    "Input Names": "SP_INVENTORY_DAILY",
    "File Name": "SP_Inventory_20210429115524.txt",
    "Arrived At": "24/04/2021 08:13:00AM",
    "Processed At": "24/04/2021 12:55:32PM",
    "Status": "Completed",
    "": ""
  },
  {
    "Input Names": "SHA_CHGLOG_SHA_WEEKLY",
    "File Name": "SHA_Weekly_20210429115524.txt",
    "Arrived At": "24/04/2021 07:54:38AM",
    "Processed At": "24/04/2021 12:11:08PM",
    "Status": "Completed",
    "": ""
  },
  {
    "Input Names": "EASE_STATUS",
    "File Name": "Ease_Daily_20210429115524.txt",
    "Arrived At": "24/04/2021 09:52:38AM",
    "Processed At": "24/04/2021 12:33:40PM",
    "Status": "Completed",
    "": ""
  },
  {
    "Input Names": "VA_SALES_CMOP_MONTHLY",
    "File Name": "VA_CMOP_monthly_20210429115524.txt",
    "Arrived At": "24/04/2021 07:41:00AM",
    "Processed At": "24/04/2021 12:07:55PM",
    "Status": "Completed",
    "": ""
  },
  {
    "Input Names": "VA_SALES_PV_MONTHLY",
    "File Name": "VA_PV_monthly_20210429115524.txt",
    "Arrived At": "24/04/2021 09:41:13AM",
    "Processed At": "24/04/2021 10:01:41AM",
    "Status": "Completed",
    "": ""
  },
  {
    "Input Names": "INS_SALES_DAILY",
    "File Name": "INS_Daily_20210429115524.txt",
    "Arrived At": "24/04/2021 09:08:36AM",
    "Processed At": "24/04/2021 12:52:31PM",
    "Status": "Completed",
    "": ""
  },
  {
    "Input Names": "SD_SALES_DAILY",
    "File Name": "SD_Sales_20210429115524.txt",
    "Arrived At": "24/04/2021 07:28:15AM",
    "Processed At": "24/04/2021 11:45:05AM",
    "Status": "Completed",
    "": ""
  },
  {
    "Input Names": "SP_SALES_DAILY",
    "File Name": "SP_Sales_20210429115524.txt",
    "Arrived At": "24/04/2021 08:44:02AM",
    "Processed At": "24/04/2021 12:20:09PM",
    "Status": "Completed",
    "": ""
  },
  {
    "Input Names": "SD_INVENTORY_DAILY",
    "File Name": "SD_Inventory_20210429115524.txt",
    "Arrived At": "24/04/2021 07:05:57AM",
    "Processed At": "24/04/2021 11:47:04AM",
    "Status": "Completed",
    "": ""
  },
  {
    "Input Names": "SP_INVENTORY_DAILY",
    "File Name": "SP_Inventory_20210429115524.txt",
    "Arrived At": "24/04/2021 09:40:42AM",
    "Processed At": "24/04/2021 11:14:00AM",
    "Status": "Completed",
    "": ""
  },
  {
    "Input Names": "SHA_CHGLOG_SHA_WEEKLY",
    "File Name": "SHA_Weekly_20210429115524.txt",
    "Arrived At": "24/04/2021 08:30:10AM",
    "Processed At": "24/04/2021 11:17:47AM",
    "Status": "Completed",
    "": ""
  },
  {
    "Input Names": "EASE_STATUS",
    "File Name": "Ease_Daily_20210429115524.txt",
    "Arrived At": "24/04/2021 09:50:24AM",
    "Processed At": "24/04/2021 12:38:25PM",
    "Status": "Completed",
    "": ""
  },
  {
    "Input Names": "VA_SALES_CMOP_MONTHLY",
    "File Name": "VA_CMOP_monthly_20210429115524.txt",
    "Arrived At": "24/04/2021 09:44:39AM",
    "Processed At": "24/04/2021 10:14:06AM",
    "Status": "Completed",
    "": ""
  },
  {
    "Input Names": "VA_SALES_PV_MONTHLY",
    "File Name": "VA_PV_monthly_20210429115524.txt",
    "Arrived At": "24/04/2021 07:48:36AM",
    "Processed At": "24/04/2021 12:52:19PM",
    "Status": "Completed",
    "": ""
  },
  {
    "Input Names": "INS_SALES_DAILY",
    "File Name": "INS_Daily_20210429115524.txt",
    "Arrived At": "24/04/2021 08:28:11AM",
    "Processed At": "24/04/2021 12:01:55PM",
    "Status": "Completed",
    "": ""
  },
  {
    "Input Names": "SD_SALES_DAILY",
    "File Name": "SD_Sales_20210429115524.txt",
    "Arrived At": "24/04/2021 08:34:22AM",
    "Processed At": "24/04/2021 12:49:11PM",
    "Status": "Completed",
    "": ""
  },
  {
    "Input Names": "SP_SALES_DAILY",
    "File Name": "SP_Sales_20210429115524.txt",
    "Arrived At": "24/04/2021 07:37:13AM",
    "Processed At": "24/04/2021 11:29:00AM",
    "Status": "Completed",
    "": ""
  },
  {
    "Input Names": "SD_INVENTORY_DAILY",
    "File Name": "SD_Inventory_20210429115524.txt",
    "Arrived At": "24/04/2021 07:51:20AM",
    "Processed At": "24/04/2021 12:29:59PM",
    "Status": "Completed",
    "": ""
  },
  {
    "Input Names": "SP_INVENTORY_DAILY",
    "File Name": "SP_Inventory_20210429115524.txt",
    "Arrived At": "24/04/2021 07:34:47AM",
    "Processed At": "24/04/2021 10:41:51AM",
    "Status": "Completed",
    "": ""
  },
  {
    "Input Names": "SHA_CHGLOG_SHA_WEEKLY",
    "File Name": "SHA_Weekly_20210429115524.txt",
    "Arrived At": "24/04/2021 08:41:39AM",
    "Processed At": "24/04/2021 11:07:26AM",
    "Status": "In Process",
    "": ""
  },
  {
    "Input Names": "EASE_STATUS",
    "File Name": "Ease_Daily_20210429115524.txt",
    "Arrived At": "24/04/2021 08:33:43AM",
    "Processed At": "24/04/2021 10:22:43AM",
    "Status": "In Process",
    "": ""
  },
  {
    "Input Names": "VA_SALES_CMOP_MONTHLY",
    "File Name": "VA_CMOP_monthly_20210429115524.txt",
    "Arrived At": "24/04/2021 07:33:16AM",
    "Processed At": "24/04/2021 11:07:40AM",
    "Status": "In Process",
    "": ""
  },
  {
    "Input Names": "VA_SALES_PV_MONTHLY",
    "File Name": "VA_PV_monthly_20210429115524.txt",
    "Arrived At": "24/04/2021 07:19:42AM",
    "Processed At": "24/04/2021 11:28:05AM",
    "Status": "In Process",
    "": ""
  },
  {
    "Input Names": "INS_SALES_DAILY",
    "File Name": "INS_Daily_20210429115524.txt",
    "Arrived At": "24/04/2021 09:30:59AM",
    "Processed At": "24/04/2021 11:10:35AM",
    "Status": "In Process",
    "": ""
  },
  {
    "Input Names": "SD_SALES_DAILY",
    "File Name": "SD_Sales_20210429115524.txt",
    "Arrived At": "24/04/2021 09:47:19AM",
    "Processed At": "24/04/2021 12:42:51PM",
    "Status": "In Process",
    "": ""
  },
  {
    "Input Names": "SP_SALES_DAILY",
    "File Name": "SP_Sales_20210429115524.txt",
    "Arrived At": "24/04/2021 09:20:17AM",
    "Processed At": "24/04/2021 11:38:53AM",
    "Status": "In Process",
    "": ""
  },
  {
    "Input Names": "SD_INVENTORY_DAILY",
    "File Name": "SD_Inventory_20210429115524.txt",
    "Arrived At": "24/04/2021 08:17:19AM",
    "Processed At": "24/04/2021 10:46:10AM",
    "Status": "In Process",
    "": ""
  },
  {
    "Input Names": "SP_INVENTORY_DAILY",
    "File Name": "SP_Inventory_20210429115524.txt",
    "Arrived At": "24/04/2021 08:19:04AM",
    "Processed At": "24/04/2021 11:14:57AM",
    "Status": "In Process",
    "": ""
  },
  {
    "Input Names": "SHA_CHGLOG_SHA_WEEKLY",
    "File Name": "SHA_Weekly_20210429115524.txt",
    "Arrived At": "24/04/2021 09:40:42AM",
    "Processed At": "24/04/2021 12:42:32PM",
    "Status": "Completed",
    "": ""
  },
  {
    "Input Names": "EASE_STATUS",
    "File Name": "Ease_Daily_20210429115524.txt",
    "Arrived At": "24/04/2021 08:30:10AM",
    "Processed At": "24/04/2021 10:42:25AM",
    "Status": "Completed",
    "": ""
  },
  {
    "Input Names": "VA_SALES_CMOP_MONTHLY",
    "File Name": "VA_CMOP_monthly_20210429115524.txt",
    "Arrived At": "24/04/2021 09:50:24AM",
    "Processed At": "24/04/2021 10:16:21AM",
    "Status": "In Process",
    "": ""
  },
  {
    "Input Names": "VA_SALES_PV_MONTHLY",
    "File Name": "VA_PV_monthly_20210429115524.txt",
    "Arrived At": "24/04/2021 07:33:16AM",
    "Processed At": "24/04/2021 10:56:07AM",
    "Status": "In Process",
    "": ""
  },
  {
    "Input Names": "INS_SALES_DAILY",
    "File Name": "INS_Daily_20210429115524.txt",
    "Arrived At": "24/04/2021 07:19:42AM",
    "Processed At": "24/04/2021 12:55:49PM",
    "Status": "Failed",
    "": ""
  }
]