[
  {
    
    "hold_reason": "INVALID_HUB_ID",
    "filename": "SP_Sales_20210429115524.txt",
    "batch_id": "4182a8c6-c612-469f-9784-3c27780fd559",
    "edw_record_num": 44670,
    "source_type": "SP",
    "source_nm": "BRIOVA",
    "content_type": "SALES",
    "file_type": "MONTHLY",
    "edw_insert_dt": "2021-05-05'T'19:01:22",
    "record_id": 2021050542752750800,
    "restatement_flag": "N",
    "sp_pat_id": 5332046316,
    "hub_pat_id": "04688011",
    "primary_icd_cd": "C64.2",
    "sp_ship_from_addr_line_1": "1100 LEE BRANCH",
    "sp_ship_from_zip": 35242,
    "sp_ncpdp_id": "0131754",
    "cust_npi": 1154617983,
    "cust_dea": "AU3541885",
    "sp_presc_id": 176465614,
    "cust_last_nm": "MSAOUEL",
    "cust_first_nm": "PAVLOS",
    "cust_addr_line_1": "1515 HOLCOMBE BLVD",
    "cust_city": "HOUSTON",
    "cust_state": "TX",
    "cust_zip": 77030,
    "rx_num": 3652966872,
    "prod_ndc": 42388002326,
    "prod_desc": "CABOMETYX TAB 60MG",
    "rx_freq": "QD",
    "total_fills_written": 11,
    "sp_shipment_id": 427527508120210400,
    "ship_dt": "2021-04-21",
    "days_supplied": 30,
    "qty_shipped": 30,
    "fill_num": 1,
    "order_num": 427527508,
    "next_scheduled_ship_dt": "2021-05-21",
    "pri_payer_id": 408636749,
    "pri_payer_nm": "UHC MR",
    "pri_payer_bin": 610097,
    "pri_payer_pcn": 9999,
    "pri_payment_type": "MEDICARE",
    "benefit_type": "PHARMACY",
    
    "transaction_key": "5332046316427527508423880023262021-04-21BRIOVA30.00000"
  },
  {
    
    "hold_reason": "NDC_DUPLICATE",
    "filename": "SP_Sales_20210429115524.txt",
    "batch_id": "4182a8c6-c612-469f-9784-3c27780fd559",
    "edw_record_num": 44863,
    "source_type": "SP",
    "source_nm": "BRIOVA",
    "content_type": "INVENTORY",
    "file_type": "MONTHLY",
    "edw_insert_dt": "2021-05-05'T'19:01:22",
    "record_id": 2021050542818421800,
    "restatement_flag": "N",
    "sp_pat_id": 5301749376,
    "hub_pat_id": "04551486",
    "primary_icd_cd": "C64.1",
    "sp_ship_from_addr_line_1": "1050 PATROL ROAD",
    "sp_ship_from_zip": 47130,
    "sp_ncpdp_id": 1564930,
    "cust_npi": 1235623927,
    "cust_dea": "MP4979653",
    "sp_presc_id": 173607795,
    "cust_last_nm": "PHAM",
    "cust_first_nm": "OANH",
    "cust_addr_line_1": "1220 HOLCOMBE BLVD 7TH FL",
    "cust_city": "HOUSTON",
    "cust_state": "TX",
    "cust_zip": 77030,
    "rx_num": 3592315116,
    "prod_ndc": 42388002426,
    "prod_desc": "CABOMETYX TAB 20MG",
    "rx_freq": "QD",
    "total_fills_written": 23,
    "sp_shipment_id": 428184217120210400,
    "ship_dt": "2021-04-28",
    "days_supplied": 15,
    "qty_shipped": 15,
    "fill_num": 4,
    "order_num": 428184217,
    "next_scheduled_ship_dt": "2021-05-13",
    "pri_payer_id": 418669168,
    "pri_payer_nm": "OPTUM COM",
    "pri_payer_bin": 610011,
    "pri_payer_pcn": "IRX",
    "pri_payment_type": "COMMERCIAL",
    "benefit_type": "PHARMACY",
    
    "transaction_key": "5301749376428184217423880024262021-04-28BRIOVA15.00000"
  },
  {
    
    "hold_reason": "INVALID_HUB_ID",
    "filename": "SP_Sales_20210429115524.txt",
    "batch_id": "4182a8c6-c612-469f-9784-3c27780fd559",
    "edw_record_num": 44658,
    "source_type": "SP",
    "source_nm": "BRIOVA",
    "content_type": "CLINICALCALL",
    "file_type": "MONTHLY",
    "edw_insert_dt": "2021-05-05'T'19:01:22",
    "record_id": 2021050542698875000,
    "restatement_flag": "N",
    "sp_pat_id": 5215494264,
    "hub_pat_id": "04589827",
    "primary_icd_cd": "C64.2",
    "sp_ship_from_addr_line_1": "1050 PATROL ROAD",
    "sp_ship_from_zip": 47130,
    "sp_ncpdp_id": 1564930,
    "cust_npi": 1659449536,
    "cust_dea": "MD1535319",
    "sp_presc_id": 156143832,
    "cust_last_nm": "LIM",
    "cust_first_nm": "ZITA",
    "cust_addr_line_1": "1220 HOLCOMBE BLVD",
    "cust_city": "HOUSTON",
    "cust_state": "TX",
    "cust_zip": 77030,
    "rx_num": 3543941496,
    "prod_ndc": 42388002326,
    "prod_desc": "CABOMETYX TAB 60MG",
    "rx_freq": "QD",
    "total_fills_written": 23,
    "sp_shipment_id": 426988749220210400,
    "ship_dt": "2021-04-20",
    "days_supplied": 15,
    "qty_shipped": 15,
    "fill_num": 8,
    "order_num": 426988749,
    "next_scheduled_ship_dt": "2021-05-05",
    "pri_payer_id": 408668708,
    "pri_payer_nm": "OPTUM COM",
    "pri_payer_bin": 610011,
    "pri_payer_pcn": "IRX",
    "pri_payment_type": "COMMERCIAL",
    "benefit_type": "PHARMACY",
    
    "transaction_key": "5215494264426988749423880023262021-04-20BRIOVA15.00000"
  },
  {
    
    "hold_reason": "NDC_INVALID",
    "filename": "SP_Sales_20210429115524.txt",
    "batch_id": "4182a8c6-c612-469f-9784-3c27780fd559",
    "edw_record_num": 44654,
    "source_type": "SP",
    "source_nm": "BRIOVA",
    "content_type": "BENEFITS",
    "file_type": "MONTHLY",
    "edw_insert_dt": "2021-05-05'T'19:01:22",
    "record_id": 2021050542592530200,
    "restatement_flag": "N",
    "sp_pat_id": 5238901764,
    "hub_pat_id": "04520644",
    "primary_icd_cd": "C78.02",
    "sp_ship_from_addr_line_1": "1050 PATROL ROAD",
    "sp_ship_from_zip": 47130,
    "sp_ncpdp_id": 1564930,
    "cust_npi": 1225407976,
    "cust_dea": "FS1630735",
    "sp_presc_id": 181616744,
    "cust_last_nm": "LEBRUN",
    "cust_first_nm": "RACHEL",
    "cust_addr_line_1": "45280 SEELEY DR",
    "cust_city": "LA QUINTA",
    "cust_state": "CA",
    "cust_zip": 92253,
    "rx_num": 3423697296,
    "prod_ndc": 42388002526,
    "prod_desc": "CABOMETYX TAB 40MG",
    "rx_freq": "QD",
    "total_fills_written": 3,
    "sp_shipment_id": 425925302220210400,
    "ship_dt": "2021-04-16",
    "days_supplied": 30,
    "qty_shipped": 30,
    "fill_num": 3,
    "order_num": 425925302,
    "next_scheduled_ship_dt": "2021-05-16",
    "pri_payer_id": 406658189,
    "pri_payer_nm": "UHC MR",
    "pri_payer_bin": 610097,
    "pri_payer_pcn": 9999,
    "pri_payment_type": "MEDICARE",
    "benefit_type": "PHARMACY",
    
    "transaction_key": "5238901764425925302423880025262021-04-16BRIOVA30.00000"
  },
  {
    
    "hold_reason": "DUPLICATE_HUB_ID",
    "filename": "SP_Sales_20210429115524.txt",
    "batch_id": "4182a8c6-c612-469f-9784-3c27780fd559",
    "edw_record_num": 44781,
    "source_type": "SP",
    "source_nm": "BRIOVA",
    "content_type": "STATUS",
    "file_type": "MONTHLY",
    "edw_insert_dt": "2021-05-05'T'19:01:22",
    "record_id": 2021050542861666000,
    "restatement_flag": "N",
    "sp_pat_id": 5297463504,
    "hub_pat_id": "04512443",
    "primary_icd_cd": "C64.1",
    "sp_ship_from_addr_line_1": "1050 PATROL ROAD",
    "sp_ship_from_zip": 47130,
    "sp_ncpdp_id": 1564930,
    "cust_npi": 1134380652,
    "cust_dea": "AU3354177",
    "sp_presc_id": 119696489,
    "cust_last_nm": "CAMPBELL",
    "cust_first_nm": "MATTHEW",
    "cust_addr_line_1": "1515 HOLCOMBE BLVD",
    "cust_city": "HOUSTON",
    "cust_state": "TX",
    "cust_zip": 77030,
    "rx_num": 3589781640,
    "prod_ndc": 42388002426,
    "prod_desc": "CABOMETYX TAB 20MG",
    "rx_freq": "QD",
    "total_fills_written": 11,
    "sp_shipment_id": 428616660220210400,
    "ship_dt": "2021-04-29",
    "days_supplied": 30,
    "qty_shipped": 30,
    "fill_num": 4,
    "order_num": 428616660,
    "next_scheduled_ship_dt": "2021-05-29",
    "pri_payer_id": 419660545,
    "pri_payer_nm": "UHC EI",
    "pri_payer_bin": 610279,
    "pri_payer_pcn": 9999,
    "pri_payment_type": "COMMERCIAL",
    "benefit_type": "PHARMACY",
    
    "transaction_key": "5297463504428616660423880024262021-04-29BRIOVA30.00000"
  },
  {
    
    "hold_reason": "NDC_INVALID",
    "filename": "SP_Sales_20210429115524.txt",
    "batch_id": "4182a8c6-c612-469f-9784-3c27780fd559",
    "edw_record_num": 44711,
    "source_type": "SP",
    "source_nm": "BRIOVA",
    "content_type": "CTRL",
    "file_type": "MONTHLY",
    "edw_insert_dt": "2021-05-05'T'19:01:22",
    "record_id": 2021050542486773000,
    "restatement_flag": "N",
    "sp_pat_id": 5315813724,
    "hub_pat_id": "04586350",
    "primary_icd_cd": "C64.2",
    "sp_ship_from_addr_line_1": "1050 PATROL ROAD",
    "sp_ship_from_zip": 47130,
    "sp_ncpdp_id": 1564930,
    "cust_npi": 1659449536,
    "cust_dea": "MD1535319",
    "sp_presc_id": 156143832,
    "cust_last_nm": "LIM",
    "cust_first_nm": "ZITA",
    "cust_addr_line_1": "1220 HOLCOMBE BLVD",
    "cust_city": "HOUSTON",
    "cust_state": "TX",
    "cust_zip": 77030,
    "rx_num": 3541730340,
    "prod_ndc": 42388002326,
    "prod_desc": "CABOMETYX TAB 60MG",
    "rx_freq": "QD",
    "total_fills_written": 23,
    "sp_shipment_id": 424867729220210400,
    "ship_dt": "2021-04-13",
    "days_supplied": 15,
    "qty_shipped": 15,
    "fill_num": 6,
    "order_num": 424867729,
    "next_scheduled_ship_dt": "2021-04-28",
    "pri_payer_id": 399695860,
    "pri_payer_nm": "UHC EI",
    "pri_payer_bin": 610279,
    "pri_payer_pcn": 9999,
    "pri_payment_type": "COMMERCIAL",
    "benefit_type": "PHARMACY",
    
    "transaction_key": "5315813724424867729423880023262021-04-13BRIOVA15.00000"
  },
  {
    
    "hold_reason": "DUPLICATE_HUB_ID",
    "filename": "SP_Sales_20210429115524.txt",
    "batch_id": "4182a8c6-c612-469f-9784-3c27780fd559",
    "edw_record_num": 44793,
    "source_type": "SP",
    "source_nm": "BRIOVA",
    "content_type": "CHGLOG",
    "file_type": "MONTHLY",
    "edw_insert_dt": "2021-05-05'T'19:01:22",
    "record_id": 2021050542621208300,
    "restatement_flag": "N",
    "sp_pat_id": 5094385416,
    "hub_pat_id": "04674702",
    "primary_icd_cd": "K76.89",
    "sp_ship_from_addr_line_1": "11142 RENNER BLVD",
    "sp_ship_from_zip": 66219,
    "sp_ncpdp_id": 1719941,
    "cust_npi": 1912188426,
    "cust_dea": "FS1340734",
    "sp_presc_id": 116430050,
    "cust_last_nm": "SOKHN",
    "cust_first_nm": "JOSEPH",
    "cust_addr_line_1": "232 S WOODS MILL RD STE 330E",
    "cust_city": "CHESTERFIELD",
    "cust_state": "MO",
    "cust_zip": 63017,
    "rx_num": 3622055952,
    "prod_ndc": 42388002526,
    "prod_desc": "CABOMETYX TAB 40MG",
    "rx_freq": "QD",
    "total_fills_written": 6,
    "sp_shipment_id": 426212084120210400,
    "ship_dt": "2021-04-14",
    "days_supplied": 28,
    "qty_shipped": 28,
    "fill_num": 2,
    "order_num": 426212084,
    "next_scheduled_ship_dt": "2021-05-12",
    "pri_payer_id": 418217337,
    "pri_payer_nm": "UHC DIR",
    "pri_payer_bin": 610494,
    "pri_payer_pcn": 9999,
    "pri_payment_type": "COMMERCIAL",
    "benefit_type": "PHARMACY",
    
    "transaction_key": "5094385416426212084423880025262021-04-14BRIOVA28.00000"
  },
  {
    
    "hold_reason": "DUPLICATE_HUB_ID",
    "filename": "SP_Sales_20210429115524.txt",
    "batch_id": "4182a8c6-c612-469f-9784-3c27780fd559",
    "edw_record_num": 44727,
    "source_type": "SP",
    "source_nm": "BRIOVA",
    "content_type": "STATUS",
    "file_type": "MONTHLY",
    "edw_insert_dt": "2021-05-05'T'19:01:22",
    "record_id": 2021050542336206000,
    "restatement_flag": "N",
    "sp_pat_id": 5301749376,
    "hub_pat_id": "04551486",
    "primary_icd_cd": "C64.1",
    "sp_ship_from_addr_line_1": "1050 PATROL ROAD",
    "sp_ship_from_zip": 47130,
    "sp_ncpdp_id": 1564930,
    "cust_npi": 1235623927,
    "cust_dea": "MP4979653",
    "sp_presc_id": 173607795,
    "cust_last_nm": "PHAM",
    "cust_first_nm": "OANH",
    "cust_addr_line_1": "1220 HOLCOMBE BLVD 7TH FL",
    "cust_city": "HOUSTON",
    "cust_state": "TX",
    "cust_zip": 77030,
    "rx_num": 3592315116,
    "prod_ndc": 42388002426,
    "prod_desc": "CABOMETYX TAB 20MG",
    "rx_freq": "QD",
    "total_fills_written": 23,
    "sp_shipment_id": 423362061220210400,
    "ship_dt": "2021-04-06",
    "days_supplied": 15,
    "qty_shipped": 15,
    "fill_num": 3,
    "order_num": 423362061,
    "next_scheduled_ship_dt": "2021-04-21",
    "pri_payer_id": 418669168,
    "pri_payer_nm": "OPTUM COM",
    "pri_payer_bin": 610011,
    "pri_payer_pcn": "IRX",
    "pri_payment_type": "COMMERCIAL",
    "benefit_type": "PHARMACY",
    
    "transaction_key": "5301749376423362061423880024262021-04-06BRIOVA15.00000"
  },
  {
    
    "hold_reason": "NDC_INVALID",
    "filename": "SP_Sales_20210429115524.txt",
    "batch_id": "4182a8c6-c612-469f-9784-3c27780fd559",
    "edw_record_num": 44666,
    "source_type": "SP",
    "source_nm": "BRIOVA",
    "content_type": "STATUS",
    "file_type": "MONTHLY",
    "edw_insert_dt": "2021-05-05'T'19:01:22",
    "record_id": 2021050542534905900,
    "restatement_flag": "N",
    "sp_pat_id": 5077518732,
    "hub_pat_id": "04620853",
    "primary_icd_cd": "C64.9",
    "sp_ship_from_addr_line_1": "1050 PATROL ROAD",
    "sp_ship_from_zip": 47130,
    "sp_ncpdp_id": 1564930,
    "cust_npi": 1760588693,
    "cust_dea": "BT0263145",
    "sp_presc_id": 908815,
    "cust_last_nm": "TANNIR",
    "cust_first_nm": "NIZAR",
    "cust_addr_line_1": "1515 HOLCOMBE BLVD",
    "cust_city": "HOUSTON",
    "cust_state": "TX",
    "cust_zip": 77030,
    "rx_num": 3646901508,
    "prod_ndc": 42388002326,
    "prod_desc": "CABOMETYX TAB 60MG",
    "rx_freq": "QD",
    "total_fills_written": 11,
    "sp_shipment_id": 425349059120210400,
    "ship_dt": "2021-04-12",
    "days_supplied": 30,
    "qty_shipped": 30,
    "fill_num": 1,
    "order_num": 425349059,
    "next_scheduled_ship_dt": "2021-05-12",
    "pri_payer_id": 419115621,
    "pri_payer_nm": "UHC MR",
    "pri_payer_bin": 610097,
    "pri_payer_pcn": 9999,
    "pri_payment_type": "MEDICARE",
    "benefit_type": "PHARMACY",
    
    "transaction_key": "5077518732425349059423880023262021-04-12BRIOVA30.00000"
  }
]